…
dynamite_reviews = bind_rows(
  read_page_reviews(vec_urls[1]),
  read_page_reviews(vec_urls[2]),
  read_page_reviews(vec_urls[3]),
  read_page_reviews(vec_urls[4]),
  read_page_reviews(vec_urls[5])
)

dynamite_reviews
```

    ## # A tibble: 50 x 3
    ##    title                                                 stars text             
    ##    <chr>                                                 <dbl> <chr>            
    ##  1 Yeah., it was pretty good.                                5 "Yeah, it was pr~
    ##  2 Love it                                                   5 "Didn't like thi~
    ##  3 it was                                                    5 "mad good yo"    
    ##  4 Fun!                                                      4 "Fun and enterta~
    ##  5 Vintage                                                   5 "Easy to order. ~
    ##  6 too many commercials                                      1 "5 minutes into ~
    ##  7 this film is so good!                                     5 "VOTE FOR PEDRO!"
    ##  8 Good movie                                                5 "Weird story, go~
    ##  9 I Just everyone to know this....                          5 "VOTE FOR PEDRO ~
    ## 10 the cobweb in his hair during the bike ramp scene lol     5 "5 stars for bei~
    ## # ... with 40 more rows
…
